Lexei’s Projects - Take-home Exercise 4: Prototyping Modules for Visual Analytics Shiny Application
…
# Assuming GDP_data is your modified dataset with 'Year' and 'Quarter' columns
# Replace "GDP_data" with your dataset name if different

# Combine 'Year' and 'Quarter' columns into a single date format
GDP_data <- GDP_data %>%
  mutate(Date = as.yearqtr(paste0(Year, Quarter)))

# Remove 'Year' and 'Quarter' columns as they're redundant now
GDP_data <- GDP_data %>%
  select(-Year, -Quarter)

# Print the modified dataset
print(GDP_data)

# A tibble: 3,264 × 3
   Data.Series                  Growth.Percentage Date     
   <chr>                                    <dbl> <yearqtr>
 1 GDP At Current Market Prices               2.6 2023 Q4  
 2 GDP At Current Market Prices              -2.8 2023 Q3  
 3 GDP At Current Market Prices              -5.8 2023 Q2  
 4 GDP At Current Market Prices              -2   2023 Q1  
 5 GDP At Current Market Prices               9.4 2022 Q4  
 6 GDP At Current Market Prices              17.5 2022 Q3  
 7 GDP At Current Market Prices              24.5 2022 Q2  
 8 GDP At Current Market Prices              20.9 2022 Q1  
 9 GDP At Current Market Prices              22.9 2021 Q4  
10 GDP At Current Market Prices              23.1 2021 Q3  
# ℹ 3,254 more rows
