Lexei’s Projects - Take-home Exercise 1: Investigating Student Performance with Data Visualisations
…
[1] 0

sum(is.na(stu_filtered$socio_economic))

[1] 47

The variable with missing values is: socio_economic.

Now, we are going to drop variable which contains missing values using ‘drop_na()’

stu_filtered <- drop_na(stu_filtered,socio_economic)

stu_filtered

# A tibble: 6,559 × 6
   school_type gender  math science reading socio_economic
   <fct>       <fct>  <dbl>   <dbl>   <dbl>          <dbl>
 1 SGP01       Female  605.    640.    667.         0.184 
 2 SGP01       Male    690.    672.    628.         0.826 
 3 SGP01       Male    677.    660.    583.        -1.04  
 4 SGP01       Male    401.    344.    361.        -0.961 
 5 SGP01       Female  436.    479.    476.         0.0856
 6 SGP01       Female  518.    476.    431.         0.127 
 7 SGP01       Male    708.    647.    704.        -0.0154
 8 SGP01       Male    620.    573.    524.         1.16  
 9 SGP01       Female  736.    691.    713.         1.47  
10 SGP01       Male    555.    548.    505.         0.520 
# ℹ 6,549 more rows
…
